%YAML 1.1
%TAG !u! tag:unity3d.com,2011:
--- !u!114 &11400000
MonoBehaviour:
  m_ObjectHideFlags: 0
  m_CorrespondingSourceObject: {fileID: 0}
  m_PrefabInstance: {fileID: 0}
  m_PrefabAsset: {fileID: 0}
  m_GameObject: {fileID: 0}
  m_Enabled: 1
  m_EditorHideFlags: 0
  m_Script: {fileID: 11500000, guid: 3123af749bdf34e4f9f64e32e48db65a, type: 3}
  m_Name: Alignment
  m_EditorClassIdentifier: 
  filter: {fileID: 11400000, guid: 2fec0be9e927e2d4db9a4d786b2a897a, type: 2}
